{
  "type": "service_account",
  "project_id": "edenred-bd",
  "private_key_id": "9947f53d0692f9b7d0a89ca4c7e6ab928495d03a",
  "private_key": "-----BEGIN PRIVATE KEY-----\nMIIEvAIBADANBgkqhkiG9w0BAQEFAASCBKYwggSiAgEAAoIBAQCenD8fbKoibLRG\nM/v5PlcNkT+Zscicx0nJ2HoNdacA954PUuWYejr0W8zDv/Qhipv6BdybKoKslDcv\nm2kznoUuN4e2cGFH6vk6eD0CdwXiHGzueOYozYdhS+K078FmmT7qI3e6J0l75uLv\nbaDRveZdeN3z89QWK/bG4rNZab4rJgz8ggDE5Du91kvGM9PwUv7Wv66MEnyaXi2L\nEr1X5i5oHVYeqP3GkSieBdE9GLnqkTGZgGT/eWGkGJErmJzMY0t6yUqh6kjrUCA0\n3cyrfDoWH+5raaNMFGzp0bmkyXFnBSFI8jHlUk6pdKYn7cZseYoaJ7glYxHK4GB7\nxN6BzDFVAgMBAAECggEACVn8/sVRYqY2Gs2F1bQvPcWKkm1A/r1hRF1XFOQS7KOs\n1gp1LwBF6ZJgCEqRAklB2QPvddaTzckPV+c51KlMAOWVQtRtZ+gaua/NKRALcMFs\nSsMmDtHPYZUv0KsyI/J1GyjsLjWSx5NdXfCAwt0HcAtoSrHdl1EQQ7mqCWOKqtCD\nr+oOiEZPIJIntxa2kg9qqTjztBbCDp9qmtHhzj35z3ecO8WVY6HiI5ag/ZodHQqx\nLe+/Mg4UUnuzT0QRHyeKBDLqED1+zjbBJNsC9MnBlZuksHwv/ZOxwhIimAC2fnbi\nCJXVeInMbVHLAIw+jdLQNO8ueADODnDQ61hje6QjIQKBgQDY+jhmKy1CCWkfJCck\nzoereeLNJmcTOTHzUsSiiWCHB5xRSs49uJFVbgdHRJgR+UqnCE0HM0H2GuJN2ykR\nS8HnVPEVQi7sVIcDXm8x0HlpWaIIz+OsXVNPcnqrl47Pt3bsgswYRZ+4H65eGtRg\nm+GHCXFPaiCKfNbfUBmNV8gk9wKBgQC7IsSr78mQ1buZNHB7qzP0+goiySZ/0GEl\n7lW/oot7Bk5r9SAbIz+TOPQqSWPa4WNHvjDoA4TpHRYT8iIi3/2JiBoL0saOKksC\noJ/oyCXnkb5oP8WJGfjPs4Elws6bYUlFPWmKoEaqNRbSwvI8VhGEaDTbzMx2ZOcY\nexXtyIRlEwKBgHPz7FX1Nv92Zf4lZOHPmUMzJNg7cJQeWapODhVKUxJ2J7xtvJ/R\nVaGQ5kTYzGe2kIWI8xko9FQf89Zli6HZmWsVwqx4rPjRB0Huon+9iFSbePM6ndIM\nIaxwYkv293Pb+KrWD1ndQ0izbYyOy/ZA95ohmrM05OT9aBr5BF67jZLrAoGALbCK\ndjRAcWVNvVUpVXhyYhCeYunbxX8aCQnM09Ia3fmnMgKSSS3s+sQAEUcD40/+Tmjo\nRe1+CPB6EHqgzQUFQQwC1/opUlKPJ+ARyuL7JjPWWlufnh7COevoz1Bl41f4bLhW\nyWridfIqVWEVhZe6BSrwJO42yX1PUxHSQ9EeShMCgYBsCemP7wysz+zEQGyodzwZ\nkEKZqCtGshuDxr2Bl8CwsKXzIE0voDeA2vqON97DgrNM2e5jYdPKZvfD+e5ggFTP\n4Y0WMzHe2RenLrdPpLasIY4eUkPAyjWpdLjHcwMtSPQE6SJR5RS+bhNM2NEeZG5u\nAUpl08AWovMgvM/j59WLEA==\n-----END PRIVATE KEY-----\n",
  "client_email": "firebase-adminsdk-1ahkf@edenred-bd.iam.gserviceaccount.com",
  "client_id": "111834717920526090940",
  "auth_uri": "https://accounts.google.com/o/oauth2/auth",
  "token_uri": "https://oauth2.googleapis.com/token",
  "auth_provider_x509_cert_url": "https://www.googleapis.com/oauth2/v1/certs",
  "client_x509_cert_url": "https://www.googleapis.com/robot/v1/metadata/x509/firebase-adminsdk-1ahkf%40edenred-bd.iam.gserviceaccount.com"
}
